      subroutine comment                                                
          print *, '----------------------------------------------'     
          print *, '---  arc2dl95  version date 09/03/87 thp ----'      
          print *, '----------------------------------------------'     
c                                                                       
c  self documentation for arc2d                                         
c                                                                       
c     i/o files:                                                        
c          tape3     binary restart data, read in ioall(4)              
c          tape4     binary restart data, written in ioall(10)          
c          tape8     binary or formatted grid input,                    
c                    accessed in ioall(3)                               
c          tape11    grid output, unformatted from ioall(16)            
c          tape19    output of residual, and forces history for         
c                    plotting on iris workstation                       
c          tape23    ioall(12)  output of cp vrs time for iris plotting 
c                                                                       
c :::::::::::::::::::::::::::::::::::                                   
c   time step procedure                                                 
c :::::::::::::::::::::::::::::::::::                                   
c                                                                       
c    time step sequencing and mesh sequencing is available.             
c  the last few lines of the input control the mesh sizes               
c  and the time steps used.  the format is :                            
c                                                                       
c   read(*,*)      : a comment line                                     
c   read(*,*)isequal                                                    
c   read(*,*)      : a comment line                                     
c   do ii =1,isequal                                                    
c   read(*,*) jmxi(ii),kmxi(ii),iends(ii),dtiseq(ii),dtmins(ii)         
c   enddo                                                               
c                                                                       
c   you can use this to get a mesh sequencing from a coarse mesh        
c   to the target fine mesh.   for example if :                         
c                                                                       
c     jmax = 193,  kmax = 33                                            
c                                                                       
c isequal                                                               
c       3                                                               
c ii  jmxi  kmxi  iends   dtiseq   dtmins                               
c  1    49    11    100      5.0      0.0                               
c  2    97    18    100      5.0      0.0                               
c  3   193    33    100      5.0      0.0                               
c                                                                       
c   or if different time steps are required on the same                 
c   grid you could use                                                  
c                                                                       
c isequal                                                               
c       5                                                               
c ii  jmxi  kmxi  iends   dtiseq   dtmins                               
c  1    49    11    100      5.0      0.0                               
c  2    97    18    100      3.0      0.0                               
c  3    97    18    100      5.0      0.0                               
c  4   193    33    100      2.0      0.0                               
c  5   193    33    100      5.0      0.0                               
c                                                                       
c  in the case of a c mesh then jtail1 and jtail2 must be               
c  set such that all sub meshes have a point at the physical            
c  trailing edge of the airfoil.                                        
c    that is :                                                          
c                                                                       
c     (jtail1-1) must be devisible by 2 to a whole integer              
c     to produce a  sub mesh jtail1 at the trailing edge.               
c                                                                       
c                                                                       
c   isequal                                                             
c  the number of mesh sequences or time step sequences.                 
c                                                                       
c   jmxi(i)                                                             
c  the j dimension on sub mesh i.  (may be jmax).                       
c  must be jmax or                                                      
c  (jmax-1)/(jmxi(i)-1) must be an integer                              
c  jmxi(isequal) must be jmax                                           
c                                                                       
c   kmxi(i)                                                             
c  the k dimension on sub mesh i.  (may be jmax).                       
c  must be <= kmax.                                                     
c  kmxi(isequal) must be kmax                                           
c                                                                       
c   dtiseq(i)                                                           
c  the time step used on mesh i.                                        
c                                                                       
c   iends(i)                                                            
c   the number of time steps used on mesh i.                            
c                                                                       
c  dtmins(i)                                                            
c    the minimum time step (dtmin) used on mesh i.                      
c-----------------------------------------------------------------------
c                       indices  j,k                                    
c-----------------------------------------------------------------------
c       jmax:   total number of points in xi direction   (default=193)  
c                                                                       
c       kmax:   total number of points in eta direction  (default=33 )  
c                                                                       
c       jm:     jmax - 1                                                
c                                                                       
c       km:     kmax - 1                                                
c                                                                       
c       jbegin, jend : absolute lower and upper limits on j             
c                      typically 1 and jmax                             
c       kbegin, kend : absolute lower and upper limits on k             
c                      typically 1 and kmax                             
c                                                                       
c-----------------------------------------------------------------------
c     automatic periodic and nonperiodic logic is available.            
c                                                                       
c       periodic    switch for nonperiodic vrs periodic coding          
c               periodic = f  nonperiodic option                        
c               periodic = t   periodic option           (default=false)
c       jplus   index array for j differencing                          
c               jplus(j) = j+1                                          
c                 jplus(jmax) = jmax for periodic = f                   
c                 jplus(jmax) = 1    for periodic = t                   
c       jminus  index array for j differencing                          
c               jminus(j) = j+1                                         
c                 jminus(1) = 1    for periodic = f                     
c                 jminus(1) = jmax for periodic = t                     
c       jlow    lower do loop limit in j direction                      
c                  jlow = 2  for periodic = f                           
c                  jlow = 1  for periodic = t                           
c       jup     upper do loop limit in j direction                      
c                  jup = jmax-1  for periodic = f                       
c                  jup = jmax    for periodic = t                       
c       klow    lower do loop limit in k direction                      
c                  klow = 2  typically                                  
c       kup     upper do loop limit in k direction                      
c                  kup = kmax-1  typically                              
c                                                                       
c       cmesh : for c mesh airfoils (note periodic = false required)    
c               wake cut is handled implicitly for cmesh = true         
c               cmesh = true  : c mesh logic on                         
c               cmesh = false : c mesh logic off                        
c                                                                       
c       orderxy : order of operations for implicit integration.         
c                orderxy = true  : xi - eta order (works for all methods
c                orderxy = false : eta - xi order (see input for excepti
c                note: for cmesh = true xy order used by default        
c-----------------------------------------------------------------------
c---------------------------------------------------------------------- 
c---------------------       note    ---------------------------------- 
c---------------------------------------------------------------------- 
c     code has the option to use an overlapping or nonoverlapping period
c     grid.  in the overlap case the 1 and jmax point are overlapped in 
c     the grid and special logic in the above parameters is used to acco
c     for this.  see sub. initia.                                       
c                                                                       
c       jmaxold :   inputted value of jmax.                             
c                   if overlap is set jmaxold = jmax then we set jmax = 
c                   for cases with overlap the output routines (especial
c                   for plot3d) use jmaxold so that the plots show a clo
c                   geometry and solution domain.                       
c---------------------------------------------------------------------- 
c-----------------------------------------------------------------------
c-----------------------------------------------------------------------
c                                                                       
c	np:	calls ioall(15) to show rho, u, v, e, p, cp, mach, x, y           
c               (default=10000)                                         
c                                                                       
c	npcp:	calls ioall(12) to output cp vrs time for plotting on           
c               iris or other devices  see ioall.                       
c               (default=10000)                                         
c               unformatted data                                        
c                                write(23)isequal  (number of grid seque
c                                for isequal                            
c                                write(23)jbod                          
c                                write(23)(xbod(j),j=jtail1,jtail2)     
c                                for all iterations                     
c                                write(23)totime                        
c                                write(23)(cp(j),j=jtail1,jtail2)       
c                                end iterations                         
c                                write(23)pstop (switch when new seqence
c                                end sequences                          
c                                                                       
c                                                                       
c       dt:     time step            (default=5.0)                      
c               either a true dt for time accurate computation          
c               or a scaling factor for the spatially variable time step
c               [ in steady state calculation dt is order(1.0) ]        
c                                                                       
c       dtmin:  a minimum bound on the time step in the variable        
c               dt case (jacdt > 0)                                     
c                                                                       
c-----------------------------------------------------------------------
c       fsmach: free stream mach number                (default=0.397)  
c               read in in ioall(1)                                     
c                                                                       
c       alpha:  angle of attack of airfoil             (default=0.0 )   
c               read in in ioall(1)                                     
c                                                                       
c-----------------------------------------------------------------------
c       gamma:  gas constant ( 1.4 )                                    
c                                                                       
c       gami:   gamma - 1                                               
c                                                                       
c       pi  :   4.*atan(1.0)                                            
c                                                                       
c-----------------------------------------------------------------------
c                 dissipation parameters                                
c-----------------------------------------------------------------------
c                                                                       
c       smu:    smoothing parameter in explicit right hand side         
c                                                        (default=1.0 ) 
c               read in in ioall(1) only used for meth = 1,4,-1         
c               used in ioall, smooth,  rescaled by dt                  
c                                                                       
c       smuim:  smoothing parameter in implicit left hand side          
c                                                        (default=3.0 ) 
c               read in in ioall(1) only used for meth = 1,4,-1         
c               used in ioall, flmatx2, flmaty2,  rescaled by dt        
c                                                                       
c       dis2x:  second order x coefficient for filter       (default=0.0
c       dis2y:  second order y coefficient for filter       (default=0.0
c               read in in ioall(1) only used for meth = 2,3            
c               used in filterx, filtery, stepf2dx, stepf2dy            
c                                                                       
c       dis4x:  fourth order x coefficient for filter       (default=0.6
c       dis4y:  fourth order y coefficient for filter       (default=0.6
c               read in in ioall(1) only used for meth = 2,3            
c               used in filterx, filtery,  stepf2dx, stepf2dy           
c                                                                       
c-----------------------------------------------------------------------
c       ispec : switch for spectral radius scaling in                   
c               artificial dissipation                                  
c                                                                       
c           ispec = 0                                                   
c                      spectx = specty = 1./xyj                         
c                                                                       
c                      use ispec = 0 for meth = 1,4,-1                  
c                                                                       
c           ispec = 1  form spectx and specty independently     (default
c                      spectx = (abs(uu) + ccx)/xyj                     
c                      specty = (abs(vv) + ccy)/xyj                     
c                                                                       
c                      use ispec = 1 for meth = 2,3                     
c                                                                       
c           ispec = 4  form spectx and specty independently             
c                      spectx = (abs(xi_x)  + abs(xi_y) )/xyj           
c                      specty = (abs(eta_x) + abs(eta_y))/xyj           
c                                                                       
c                                                                       
c           ispec = -1 spectx = specty = 64./xyj                        
c                                                                       
c-----------------------------------------------------------------------
c                   algorithm options                                   
c-----------------------------------------------------------------------
c                                                                       
c	meth:	method                    (default=3)                           
c               entered in as data in initia, read in in ioall(1)       
c		        =-1 : standard block penta implicit scheme                   
c                             with constant coefficient dissipation     
c		        =1  : standard block tridi implicit scheme                   
c                             with constant coefficient dissipation     
c                       =2  : block pentadiagonal scheme                
c                             with 2nd-4th order nonlinear artificial   
c                             dissipation                               
c                       =3  : penta - diagonal implicit scheme with     
c                             2nd - 4th order nonlinear implicit smoothi
c                       =4  : penta - diagonal implicit scheme with     
c                             4th - 4th order implicit/explicit         
c                                       constant dissipation            
c                       =5  : tvd symmetric method  block    form       
c                       =6  : tvd symmetric method  diagonal form       
c                       =7  : tvd upwind    method  block    form       
c                       =8  : tvd upwind    method  diagonal form       
c                                                                       
c               use block implicit scheme for time accurate computation.
c            the present version uses constant coefficient artificial   
c            dissipation.  for steady state computations use diagonal   
c            scheme, nonlinear artificial dissipation used.             
c                                                                       
c       jacdt:  switch to turn on variable time step.    (default = 1)  
c                      for unsteady problems use constant time step.    
c                      for steady - state use variable time step.       
c               read in in ioall(1)                                     
c                       =0 : constant time step                         
c                       =1 : time step scaled by jacobian               
c                       =2 : time step based on minimum 1/eigenvalues   
c                       =3 : time step based constant cfl at each point 
c                                                                       
c       dtrate:  a scaling foctor for the variable time step based on   
c                jacobian.  allows for larger time steps when jacobian  
c                gets large, for instance near the body.                
c                ***** only for jacdt = 1  ********                     
c                 formula for var. dt is                                
c                                                                       
c                                  dt(1 + dtmin sqrt(jacobian))         
c                      dt(used) = ____________________________          
c                                 (1. + sqrt(jacobian)/dtrate)          
c                                                                       
c-----------------------------------------------------------------------
c-----------------------------------------------------------------------
c       nsuper:  number of supersonic points  computed in ioall         
c                                                                       
c       resid:  assigned to in residl2 output in ioall(8) onto tape7    
c                       output in ioall(5) to tape6                     
c                       zeroed in initia                                
c                       2-norm of residual                              
c                                                                       
c       residmx:  assigned to in residl2, output in ioall(8)            
c                 onto tape7                                            
c                       zeroed in initia                                
c                       max-norm of residual                            
c                                                                       
c                                                                       
c       maxres, maxdq:  the j and k locations of the maximum residuals  
c               and change in q, over the 4 conservative variables.     
c                                                                       
c       strtit: the number of iterations over which the slow ( rather   
c                       than impulsive ) start is spread.  (default=12) 
c               read in and echoed in ioall(1)                          
c                                                                       
c       cputime :   cpu time                                            
c                                                                       
c	restart:	restart; expects data on unit 3                              
c               read in in ioall(1)                                     
c               used in bc to determine if scaling occurs in startup.   
c               used in initia                                          
c			=false : no read of restart data    (default)                       
c			=true  : read restart data                                          
c                                                                       
c	store: write restart data on unit 4                                   
c               read in in ioall(1)                                     
c               used in initia, ioall                                   
c			=false : no write of data         (default)                         
c			=true  : write restart data                                         
c                                                                       
c       iprint: output switch for frequency of residual history output  
c               on unit 6 ( main )                      (default=1)     
c                                                                       
c-----------------------------------------------------------------------
c                     grid parameters                                   
c-----------------------------------------------------------------------
c	iread:	grid                                    (default = 0 )         
c               read in in ioall(1)                                     
c                       used in initia, ioall                           
c			=0 : create grid for cylinder grid                                  
c			=1 : formatted read of grid                                         
c                                 from unit 8 in ioall(3)               
c                            jmax,kmax 2i5                              
c                            x,y 5f14.7                                 
c                       =2 : unformatted read of grid                   
c                                 from unit 8 in ioall(3)               
c                                                                       
c	jtail1:	first solid body point                                        
c               read in in ioall(1)                                     
c               >= 2 for nonperiodic grid                               
c               set to =1 in initia if periodic ( o-grid )              
c                                                                       
c	jtail2: last solid body point                                         
c               read in in ioall(1)                                     
c               <= jmax-1 nonperiodic grid                              
c               set to =jmax in initia if periodic=1 ( o-grid )         
c                                                                       
c	dswall:    minimum spacing at body for cylinder grid                  
c               read in in ioall,                      (default = -0.005
c                       passed as parameter to cylgrid from initia      
c		referenced only in cylgrid                                           
c                  dswall  = 0.0 produces uniform circle grid           
c                  dswall  > 0.0 produces stretched grid with dswall    
c                            minimum spacing in eta and cosine          
c                            clustering to front and back               
c                  dswall  < 0.0 produces uniform grid in xi and        
c                            stretched in eta                           
c                                                                       
c	sobmax:	upper dimension in diameters (d = 1) for cylinder grid        
c               read in in ioall,                       (default = 12.0 
c			passed as parameter to cylgrid from initia.                         
c                                                                       
c-----------------------------------------------------------------------
c                 bc parameters                                         
c-----------------------------------------------------------------------
c                                                                       
c       bcairf :   option for different boundary conditions  (default=fa
c                = .true.   bcupdate called for airfoil conditions      
c                = .false.  bcplate  called for flat plate conditions   
c                                                                       
c       circul :   switch for circulation model at farfield boundary    
c                  sets circulation at farfield boundary based on body  
c                  value.  circulation computed from cl.                
c                  = false for no model                           (defau
c                  = true for model                                     
c                                                                       
c       sharp,cusp :  special logic is used at trailing edge of an airfo
c                                                       (defaults = fals
c                     for sharp or cusp t. e. and `o' type meshes.  in  
c                     that case sometimes the metrics and jacobian are  
c                     ill behaved and errors occur.  this special logic 
c                     changes the metrics and jacobian (see xymets)     
c                     and modifies the boundary conditions (see bc)     
c           note:  these only have meaning for periodic meshes          
c                  sharp = .false. nothing special done                 
c                  sharp = .true.  special logic                        
c                  cusp  = .false. nothing special done                 
c                  cusp  = .true.  special logic                        
c                                                                       
c                                                                       
c                                                                       
c-----------------------------------------------------------------------
c                    time accuracy parameters                           
c-----------------------------------------------------------------------
c      a class of three step first or second order time accuracte scheme
c      can be employed.  for steady state euler implicit performs the be
c      for unsteady, 3pt implicit is a good choice.                     
c                                                                       
c       phidt         time integration parameters :                     
c       thetadt       phidt = 0   thetadt = 1    euler implicit (default
c                     phidt = 0   thetadt = 1/2  trap. implicit         
c                     phidt = 1/2 thetadt = 1    3pt   implicit         
c                                                                       
c-----------------------------------------------------------------------
c                                                                       
c-----------------------------------------------------------------------
c                                                                       
c	numiter:	iteration counter for main steps                             
c                                                                       
c       istart:         the starting iteration,                         
c                               read in from the restart                
c                                                                       
c	totime: dt*n*fsmach                                                   
c---------------------------------------------------------------------- 
c                                                                       
c---------------------------------------------------------------------- 
c---------------        viscous parameters      ----------------------- 
c---------------------------------------------------------------------- 
c	re:	reynolds no. based on free stream velocity  (default=0.0)         
c		note that code scales this to re base on ainf.                       
c               read in in ioall(1), and rescaled in initia             
c               referenced in visrhs, vismat, mutur                     
c                                                                       
c	viscous:	                                                             
c               read in in ioall(1)                                     
c		= false : inviscid              (default)                            
c		= true  : viscous                                                    
c---------------------------------------------------------------------- 
c---------------------------------------------------------------------- 
c       wtrat:  ratio of fixed wall temperature (rankine) to            
c               if wtrat =  0.0  used adiabatic wall conditions         
c               if wtrat /= 0.0  used isothermal wall conditions        
c                      temperature at the wall is then wtrat * tinf     
c                                                                       
c                                                                       
c                                                                       
c       tinf :  infinity temperature                                    
c                                                                       
c---------------------------------------------------------------------- 
c       logicals to turn on various explicit viscous terms              
c           viseta = true,  visxi = viscross = false is standard option 
c           that is the thin layer approximation                        
c           caution: implicit viscous terms are only programmed for the 
c                    thin layer approximation.                          
c                    in general this is the case which should be used   
c                                                                       
c       visxi:                                                          
c                read in in input                (default = false )     
c                = false : no explicit viscous terms in xi (see visrhs) 
c                = true  : explicit viscous terms in xi (see visrhs)    
c                note!! eddy viscosity truned off for visxi = true      
c       viseta:                                                         
c                read in in input                (default = false)      
c                = false : no explicit viscous terms in eta (see visrhs)
c                = true  : explicit viscous terms in eta (see visrhs)   
c       viscross:                                                       
c               read in in input                  (default = false )    
c               = false : no explicit viscous cross terms (see visrhs)  
c               = true  : explicit viscous cross terms (see visrhs)     
c---------------------------------------------------------------------- 
c       ivis:   for meth = 3,4,6, 8                  (default = 2)      
c		   =1: uses pentadiagonal for xi and block for eta                   
c                      with implicit viscous eigenvalues included.      
c		   =2: inviscid implicit operator in xi and eta                      
c			      viscous explicit operator                                     
c---------------------------------------------------------------------- 
c	turbulnt:	only used for viscous = t                                   
c			= false : laminar flow                                              
c			= true  : turbulnt flow    (default = false)                        
c---------------------------------------------------------------------- 
c       translo :  lower surface transition point in terms of % chord   
c       transup :  upper surface transition point in terms of % chord   
c                  used in mutur          (defaults = 0.0 )             
c                    note :: if translo .eq. 0.0 transition is at       
c                            leading edge.                              
c       jtranlo :  lower surface j index for transition    see initia   
c       jtranup :  upper surface j index for transition    see initia   
c                that is  turmu(j,k)  set to 0.0                        
c                for j = jtranlo,jtranup                                
c---------------------------------------------------------------------- 
c                                                                       
c---------------------------------------------------------------------- 
c        .............  cl vrs alpha logic .............                
c---------------------------------------------------------------------- 
c                                                                       
c       clalpha : option to compute alpha for a given cl                
c                 clalpha = .false.  logic not used   (default=false)   
c                 clalpha = .true.   logic turned on                    
c       clinput : target coefficient of lift                            
c       iclstrt : start alpha mod after iclstrt iterations              
c       iclfreq : update alpha every iclfreq steps                      
c                 using the formula :                                   
c                        delta alpha = -relaxcl * delta cl              
c                        delta cl = clinput - cl(claculated)            
c        relaxcl: relaxation parameter for delta alpha                  
c                    should use values of order 1.0                     
c        cltol  : update of alpha stopped when abs(delta cl) reaches    
c                 tolerance for delta cl = cltol,  order(1.0e-4)        
c        isw    : dummy switch for print out                            
c                                                                       
c                                                                       
c---------------------------------------------------------------------- 
c-----------------------   variables   -------------------------------- 
c---------------------------------------------------------------------- 
c	q:	conservative variables                                             
c            q(i,j, 1)     density / determinant of metric jacobian     
c            q(i,j, 2)     density * u / determinant of metric jacobian 
c            q(i,j, 3)     density * v / determinant of metric jacobian 
c            q(i,j, 4)     energy / determinant of metric jacobian      
c                                                                       
c       press :  pressure = gami*(q(4) - 0.5*(q(2)**2+q(3)**2)/q(1))    
c                note:  has jacobian in it                              
c       sndsp :  a = sqrt(gamma*press/q(1))                             
c                note:  doesn't have jacobian in it                     
c                                                                       
c	s:	                                                                   
c	    used for explicit right hand side in rhs,                         
c           altered in visrhs,                                          
c	    smoothed in smooth,filter                                         
c           used for intermediate quantities in the af scheme in step, e
c           and ultimately holds the change in q.                       
c                                                                       
c	xy:	metric transformations                                            
c            xy(i,j, 1)     d xi / dx                                   
c            xy(i,j, 2)     d xi / dy                                   
c            xy(i,j, 3)     d eta / dx                                  
c            xy(i,j, 4)     d eta / dy                                  
c                                                                       
c	xyj:	jacobians of metric transformations                              
c		= ( dxi/dx * deta/dy ) - ( dxi/dy * deta/dx )                        
c                                                                       
c	xit:	d xi / dt                                                        
c                                                                       
c	ett:	d eta / dt                                                       
c                                                                       
c	ds:	spatially variable time step, scaled on metric jacobian,          
c                  set in initia, used in step, stepf2d,                
c                                         eigen, flmatx2, flmaty2       
c                                                                       
c	x:	cartesian x coordinates of the grid.                               
c	y:	cartesian y coordinates of the grid.                               
c                                                                       
c       fmu:	laminer eddy viscosity from sutherlands law                
c                                                                       
c	turmu:	turbulent eddy viscosity                                       
c                                                                       
c               the block tridiagonal solver, used by btrix, btriy,     
c                  step, stepf2d, rhs, fillmat,  flmatx2,               
c                  flmaty2, visrhs, vismat.                             
c                                                                       
c       vort:  vorticity                                                
c                       holds total vorticity.                          
c                       !!note the way it is                            
c                       computed routine vortdxi must be called first   
c                                                                       
c---------------------------------------------------------------------- 
c	a:	lower diagonal elements                                            
c	b:	diagonal elements                                                  
c	c:	upper diagonal elements                                            
c	d:	jacobians from fillmat                                             
c                   intermediate results in btrix,btriy,                
c                   see note in main about the use of d for temporaries 
c       e:   temporary space for periodic block solver btripx           
c                                                                       
c                                                                       
c-----------------------------------------------------------------------
        return                                                          
        end                                                             
