README	ebf9146f	10080
README.f77	e169cbea	1596
amplsolv.lbc	e83a4f35	956
amplsolv.sy	1ccdb502	1197
arith.ibm	f398be2b	1391
arith.h0	e206209c	2309
arithchk.c	1f193074	5142
asl.h	e84c5519	34174
asl_pfg.h	6483336	1268
asl_pfgh.h	49b5a53	1288
asldate.c	ea831451	29
atof.c	1fabc7d3	1747
auxinfo.c	1a3c8690	1488
b_search.c	18aac04a	3312
basename.c	e48c8248	1505
bscanf.c	f35108ae	4931
com2eval.c	cee65c1	11145
comeval.c	168c0724	2692
comptry.bat	ef716235	77
con1ival.c	e03f607a	4978
con2ival.c	fc246fe9	5006
con2val.c	fe922d36	4548
conadj.c	bb213ed	2040
configure	1679ad6	1706
configurehere	f8f26d16	1365
conpval.c	eaaf06a	17206
conscale.c	83a1310	3526
conval.c	78074e7	4119
derprop.c	e1181b02	1359
details.c0	fa7ec7b3	182
dtoa.c	26b8ad8	67983
dtoa1.c	ed967a36	3071
duthes.c	ea8758e9	3635
dvalue.hd	fedc7579	1104
dynlink.c	f185cc89	1375
errchk.h	18e45db4	1786
f_read.c	15b643cc	1227
fg_read.c	f6dbfae4	40258
fg_write.c	895af77	18941
fgh_read.c	ed5ebada	36732
float.h0	11d95cda	1822
fpecatch.c	e1d8a914	1574
fpinit.c	130d135f	4642
fpinitmt.c	1b15ff12	4572
fpsetprec.s	1d0b2972	535
fullhes.c	eeea81e	3978
func_add.c	ff08ec61	12538
funcadd.c	153afbf1	3487
funcadd.h	3edd54d	14939
funcadd0.c	ee0ae780	1392
funcadd1.c	16766e37	8291
funcaddk.c	1913fb94	3359
funcaddr.c	fc16b89a	1197
g_fmt.c	efcfdd3b	3452
genrowno.c	1a8171dc	1805
getenv.c	e86c81a2	1466
getstub.c	c00a014	11677
getstub.h	e7b2107f	6756
htcl.c	2dd6c9	2281
jac0dim.c	e34b75be	6779
jac2dim.c	f113dc34	1679
jac2dim.h	fb302fa6	2057
jacdim.c	ed5566c3	2109
jacinc.c	7ed490b	2577
jacinc1.c	e8dead00	2215
jacpdim.h	ea424f77	2266
mach.c	ea56afd	2026
mainexit.c	e4761b9b	1713
makefile.sy	14016b91	5134
makefile.u	f7aacf8c	9698
makefile.vc	f33d4501	6634
makefile.wat	eedbd375	5428
mip_pri.c	19e54f76	7877
misc.c	6c65fea	20201
mypow.c	1571ef65	2294
names.c	e0cd2a0c	4207
nl_obj.c	faef2e84	2054
nlp.h	f94bd3fd	5474
nlp2.h	e685079d	7241
nqpcheck.c	9938d79	18015
obj2val.c	73af237	4163
obj_prec.c	fd065560	1440
objconst.c	11aa4770	2257
objval.c	ea727e5a	5143
objval_.c	1b84f80e	4475
op_type.c	103eae0f	1202
op_type.hd	46993b1	1265
opcode.hd	fa56de9c	1326
opnos.hd	ce11c7b	64
pfg_read.c	e93c2344	103905
pfghread.c	fadac3a0	1261
printf.c	ea54b7ea	17870
pshvprod.c	e1661d98	20801
psinfo.h	ee2214c4	9761
punknown.c	fa46cf10	1704
qp_read.c	1dd530e3	3859
qpcheck.c	16ec2d20	1782
qsortv.c	14eac08c	4858
r_op.hd	128e5aec	875
r_opn.hd	ebeac2d1	412
r_opn0.hd	728330d	342
r_qp.hd	ed73d1c5	164
readsol.c	f35fe0e9	8427
repwhere.c	f4d7f708	2613
rnd_prod.s	f4996bed	1471
rops.c	ebf343c1	24231
rops2.c	eb3697c	24217
sigcatch.c	e883ab2	2372
sjac0dim.c	dfd5e10	1528
sos_add.c	f0109117	24089
sphes.c	e4630bb9	27102
sprintf.c	e6ce1d45	3050
sscanf.c	e8b1a5c0	2932
stderr.c	a58e1f	1928
stdio1.h0	f9011b5b	2841
strerror.c	1c5c813a	1362
studchk0.c	d874b49	1387
suf_sos.c	f1f6a367	11237
value.c	814c848	7044
writesol.c	ef12b772	11952
wrtsol_.c	e8b23ad5	2429
ws_desc.c	fceb8f65	214
wsu_desc.c	fbb1c30c	170
x2check.c	e7ff7f30	2203
xectim.c	ebfe817d	2709
xp1known.c	907b5ac	3535
xp2known.c	f1dca600	6558
